Project 1: Wrangling, Exploration, Visualization
…
# another way to compute individual summary statistics for
# each variable
top500 %>% summarize_if(is.character, n_distinct)

## # A tibble: 1 x 11
##   company sector  city state newcomer ceo_founder ceo_woman profitable   CEO
##     <int>  <int> <int> <int>    <int>       <int>     <int>      <int> <int>
## 1     500     21   234    37        2           2         2          2   497
## #  with 2 more variables: Website <int>, Ticker <int>

# See the distribution of top500 companies based on State
top500 %>% group_by(state) %>% summarize(count = n()) %>% arrange(desc(count))

## # A tibble: 37 x 2
##    state count
##    <chr> <int>
##  1 NY       54
##  2 CA       53
##  3 TX       50
##  4 IL       37
##  5 OH       27
##  6 PA       22
##  7 VA       22
##  8 FL       18
##  9 GA       18
## 10 MA       17
## #  with 27 more rows

# See how profitable each sector is
sector_count <- top500 %>% group_by(sector) %>% summarize(profitability = mean(profitable == 
    "yes")) %>% arrange(desc(profitability))
sector_count

## # A tibble: 21 x 2
##    sector                        profitability
##    <chr>                                 <dbl>
##  1 Apparel                               1    
##  2 Business Services                     1    
##  3 Financials                            0.945
##  4 Industrials                           0.944
##  5 Transportation                        0.941
##  6 Technology                            0.932
##  7 Health Care                           0.925
##  8 Aerospace & Defense                   0.909
##  9 Household Products                    0.909
## 10 Hotels, Restaurants & Leisure         0.9  
## #  with 11 more rows
…
## # A tibble: 2 x 2
##   ceo_founder `pound_conversion(revenue)`
##   <chr>                             <dbl>
## 1 no                               20373.
## 2 yes                              32834.

# IMPORTANT: Tidying/Reshaping: utilized pivot_wider to
# reshape dataset.
sector_female_ceo <- top500 %>% group_by(sector, ceo_woman) %>% 
    summarize(mean_profit = mean(profit)) %>% arrange(desc(sector))
sector_female_ceo %>% slice(1:5)

## # A tibble: 37 x 3
## # Groups:   sector [21]
##    sector                     ceo_woman mean_profit
##    <chr>                      <chr>           <dbl>
##  1 Aerospace & Defense        no              2019.
##  2 Aerospace & Defense        yes             2866 
##  3 Apparel                    no              1189.
##  4 Apparel                    yes              643.
##  5 Business Services          no              2046.
##  6 Chemicals                  no               873.
##  7 Chemicals                  yes              852 
##  8 Energy                     no              1416.
##  9 Energy                     yes             -974.
## 10 Engineering & Construction no               564.
## #  with 27 more rows

sector_female_ceo <- sector_female_ceo %>% pivot_wider(names_from = "ceo_woman", 
    names_prefix = "ceo_woman_", values_from = "mean_profit")
sector_female_ceo %>% slice(1:5)

## # A tibble: 21 x 3
## # Groups:   sector [21]
##    sector                     ceo_woman_no ceo_woman_yes
##    <chr>                             <dbl>         <dbl>
##  1 Aerospace & Defense               2019.         2866 
##  2 Apparel                           1189.          643.
##  3 Business Services                 2046.           NA 
##  4 Chemicals                          873.          852 
##  5 Energy                            1416.         -974.
##  6 Engineering & Construction         564.           NA 
##  7 Financials                        4133.         4463.
##  8 Food & Drug Stores                2194.         -422.
##  9 Food, Beverages & Tobacco         1732.          678.
## 10 Health Care                       3574.         4314.
## #  with 11 more rows
…
